module github.com/djaruun/gollama

go 1.21

toolchain go1.22.0

require (
	github.com/pocketbase/dbx v1.10.1
	github.com/pocketbase/pocketbase v0.22.4
	github.com/wailsapp/wails/v2 v2.8.0
)

require (
	github.com/AlecAivazis/survey/v2 v2.3.7 // indirect
	github.com/asaskevich/govalidator v0.0.0-20230301143203-a9d515a09cc2 // indirect
	github.com/aws/aws-sdk-go v1.50.37 // indirect
	github.com/aws/aws-sdk-go-v2 v1.25.3 // indirect
	github.com/aws/aws-sdk-go-v2/aws/protocol/eventstream v1.6.1 // indirect
	github.com/aws/aws-sdk-go-v2/config v1.27.7 // indirect
	github.com/aws/aws-sdk-go-v2/credentials v1.17.7 // indirect
	github.com/aws/aws-sdk-go-v2/feature/ec2/imds v1.15.3 // indirect
	github.com/aws/aws-sdk-go-v2/feature/s3/manager v1.16.9 // indirect
	github.com/aws/aws-sdk-go-v2/internal/configsources v1.3.3 // indirect
	github.com/aws/aws-sdk-go-v2/internal/endpoints/v2 v2.6.3 // indirect
	github.com/aws/aws-sdk-go-v2/internal/ini v1.8.0 // indirect
	github.com/aws/aws-sdk-go-v2/internal/v4a v1.3.3 // indirect
	github.com/aws/aws-sdk-go-v2/service/internal/accept-encoding v1.11.1 // indirect
	github.com/aws/aws-sdk-go-v2/service/internal/checksum v1.3.5 // indirect
	github.com/aws/aws-sdk-go-v2/service/internal/presigned-url v1.11.5 // indirect
	github.com/aws/aws-sdk-go-v2/service/internal/s3shared v1.17.3 // indirect
	github.com/aws/aws-sdk-go-v2/service/s3 v1.51.4 // indirect
	github.com/aws/aws-sdk-go-v2/service/sso v1.20.2 // indirect
	github.com/aws/aws-sdk-go-v2/service/ssooidc v1.23.2 // indirect
	github.com/aws/aws-sdk-go-v2/service/sts v1.28.4 // indirect
	github.com/aws/smithy-go v1.20.1 // indirect
	github.com/bep/debounce v1.2.1 // indirect
	github.com/disintegration/imaging v1.6.2 // indirect
	github.com/domodwyer/mailyak/v3 v3.6.2 // indirect
	github.com/dustin/go-humanize v1.0.1 // indirect
	github.com/fatih/color v1.16.0 // indirect
	github.com/gabriel-vasile/mimetype v1.4.3 // indirect
	github.com/ganigeorgiev/fexpr v0.4.0 // indirect
	github.com/go-ole/go-ole v1.2.6 // indirect
	github.com/go-ozzo/ozzo-validation/v4 v4.3.0 // indirect
	github.com/goccy/go-json v0.10.2 // indirect
	github.com/godbus/dbus/v5 v5.1.0 // indirect
	github.com/golang-jwt/jwt/v4 v4.5.0 // indirect
	github.com/golang/groupcache v0.0.0-20210331224755-41bb18bfe9da // indirect
	github.com/golang/protobuf v1.5.4 // indirect
	github.com/google/uuid v1.6.0 // indirect
	github.com/google/wire v0.6.0 // indirect
	github.com/googleapis/gax-go/v2 v2.12.2 // indirect
	github.com/hashicorp/golang-lru/v2 v2.0.7 // indirect
	github.com/inconshreveable/mousetrap v1.1.0 // indirect
	github.com/jchv/go-winloader v0.0.0-20210711035445-715c2860da7e // indirect
	github.com/jmespath/go-jmespath v0.4.0 // indirect
	github.com/kballard/go-shellquote v0.0.0-20180428030007-95032a82bc51 // indirect
	github.com/labstack/echo/v4 v4.10.2 // indirect
	github.com/labstack/echo/v5 v5.0.0-20230722203903-ec5b858dab61 // indirect
	github.com/labstack/gommon v0.4.0 // indirect
	github.com/leaanthony/go-ansi-parser v1.6.0 // indirect
	github.com/leaanthony/gosod v1.0.3 // indirect
	github.com/leaanthony/slicer v1.6.0 // indirect
	github.com/leaanthony/u v1.1.0 // indirect
	github.com/mattn/go-colorable v0.1.13 // indirect
	github.com/mattn/go-isatty v0.0.20 // indirect
	github.com/mattn/go-sqlite3 v1.14.22 // indirect
	github.com/mgutz/ansi v0.0.0-20200706080929-d51e80ef957d // indirect
	github.com/ncruces/go-strftime v0.1.9 // indirect
	github.com/pkg/browser v0.0.0-20240102092130-5ac0b6a4141c // indirect
	github.com/pkg/errors v0.9.1 // indirect
	github.com/remyoudompheng/bigfft v0.0.0-20230129092748-24d4a6f8daec // indirect
	github.com/rivo/uniseg v0.4.4 // indirect
	github.com/samber/lo v1.38.1 // indirect
	github.com/spf13/cast v1.6.0 // indirect
	github.com/spf13/cobra v1.8.0 // indirect
	github.com/spf13/pflag v1.0.5 // indirect
	github.com/tkrajina/go-reflector v0.5.6 // indirect
	github.com/valyala/bytebufferpool v1.0.0 // indirect
	github.com/valyala/fasttemplate v1.2.2 // indirect
	github.com/wailsapp/go-webview2 v1.0.10 // indirect
	github.com/wailsapp/mimetype v1.4.1 // indirect
	go.opencensus.io v0.24.0 // indirect
	gocloud.dev v0.37.0 // indirect
	golang.org/x/crypto v0.21.0 // indirect
	golang.org/x/exp v0.0.0-20231108232855-2478ac86f678 // indirect
	golang.org/x/image v0.15.0 // indirect
	golang.org/x/net v0.22.0 // indirect
	golang.org/x/oauth2 v0.18.0 // indirect
	golang.org/x/sync v0.6.0 // indirect
	golang.org/x/sys v0.18.0 // indirect
	golang.org/x/term v0.18.0 // indirect
	golang.org/x/text v0.14.0 // indirect
	golang.org/x/time v0.5.0 // indirect
	golang.org/x/xerrors v0.0.0-20231012003039-104605ab7028 // indirect
	google.golang.org/api v0.169.0 // indirect
	google.golang.org/appengine v1.6.8 // indirect
	google.golang.org/genproto/googleapis/rpc v0.0.0-20240311173647-c811ad7063a7 // indirect
	google.golang.org/grpc v1.62.1 // indirect
	google.golang.org/protobuf v1.33.0 // indirect
	modernc.org/gc/v3 v3.0.0-20240304020402-f0dba7c97c2b // indirect
	modernc.org/libc v1.44.0 // indirect
	modernc.org/mathutil v1.6.0 // indirect
	modernc.org/memory v1.7.2 // indirect
	modernc.org/sqlite v1.29.4 // indirect
	modernc.org/strutil v1.2.0 // indirect
	modernc.org/token v1.1.0 // indirect
)

// replace github.com/wailsapp/wails/v2 v2.8.0 => /home/caarg/go/pkg/mod
